%YAML 1.1
%TAG !u! tag:unity3d.com,2011:
--- !u!1 &3092996726334208267
GameObject:
  m_ObjectHideFlags: 0
  m_CorrespondingSourceObject: {fileID: 0}
  m_PrefabInstance: {fileID: 0}
  m_PrefabAsset: {fileID: 0}
  serializedVersion: 6
  m_Component:
  - component: {fileID: 380898351331391254}
  - component: {fileID: 18167747519789722}
  - component: {fileID: 1550586007970961251}
  m_Layer: 0
  m_Name: EventSystem
  m_TagString: Untagged
  m_Icon: {fileID: 0}
  m_NavMeshLayer: 0
  m_StaticEditorFlags: 0
  m_IsActive: 1
--- !u!4 &380898351331391254
Transform:
  m_ObjectHideFlags: 0
  m_CorrespondingSourceObject: {fileID: 0}
  m_PrefabInstance: {fileID: 0}
  m_PrefabAsset: {fileID: 0}
  m_GameObject: {fileID: 3092996726334208267}
  m_LocalRotation: {x: -0, y: -0, z: -0, w: 1}
  m_LocalPosition: {x: 30.491667, y: -4.9722357, z: 17.88929}
  m_LocalScale: {x: 1, y: 1, z: 1}
  m_Children: []
  m_Father: {fileID: 7696481871271465350}
  m_RootOrder: 2
  m_LocalEulerAnglesHint: {x: 0, y: 0, z: 0}
--- !u!114 &18167747519789722
MonoBehaviour:
  m_ObjectHideFlags: 0
  m_CorrespondingSourceObject: {fileID: 0}
  m_PrefabInstance: {fileID: 0}
  m_PrefabAsset: {fileID: 0}
  m_GameObject: {fileID: 3092996726334208267}
  m_Enabled: 1
  m_EditorHideFlags: 0
  m_Script: {fileID: 11500000, guid: 76c392e42b5098c458856cdf6ecaaaa1, type: 3}
  m_Name: 
  m_EditorClassIdentifier: 
  m_FirstSelected: {fileID: 0}
  m_sendNavigationEvents: 1
  m_DragThreshold: 10
--- !u!114 &1550586007970961251
MonoBehaviour:
  m_ObjectHideFlags: 0
  m_CorrespondingSourceObject: {fileID: 0}
  m_PrefabInstance: {fileID: 0}
  m_PrefabAsset: {fileID: 0}
  m_GameObject: {fileID: 3092996726334208267}
  m_Enabled: 1
  m_EditorHideFlags: 0
  m_Script: {fileID: 11500000, guid: 4f231c4fb786f3946a6b90b886c48677, type: 3}
  m_Name: 
  m_EditorClassIdentifier: 
  m_HorizontalAxis: Horizontal
  m_VerticalAxis: Vertical
  m_SubmitButton: Submit
  m_CancelButton: Cancel
  m_InputActionsPerSecond: 10
  m_RepeatDelay: 0.5
  m_ForceModuleActive: 0
--- !u!1 &8025946066939357768
GameObject:
  m_ObjectHideFlags: 0
  m_CorrespondingSourceObject: {fileID: 0}
  m_PrefabInstance: {fileID: 0}
  m_PrefabAsset: {fileID: 0}
  serializedVersion: 6
  m_Component:
  - component: {fileID: 7696481871271465350}
  m_Layer: 0
  m_Name: PersistentObjects
  m_TagString: Untagged
  m_Icon: {fileID: 0}
  m_NavMeshLayer: 0
  m_StaticEditorFlags: 0
  m_IsActive: 1
--- !u!4 &7696481871271465350
Transform:
  m_ObjectHideFlags: 0
  m_CorrespondingSourceObject: {fileID: 0}
  m_PrefabInstance: {fileID: 0}
  m_PrefabAsset: {fileID: 0}
  m_GameObject: {fileID: 8025946066939357768}
  m_LocalRotation: {x: 0, y: 0, z: 0, w: 1}
  m_LocalPosition: {x: -30.491667, y: 4.9722357, z: -17.88929}
  m_LocalScale: {x: 1, y: 1, z: 1}
  m_Children:
  - {fileID: 1884150640335891236}
  - {fileID: 7841007739188393340}
  - {fileID: 380898351331391254}
  m_Father: {fileID: 0}
  m_RootOrder: 0
  m_LocalEulerAnglesHint: {x: 0, y: 0, z: 0}
--- !u!1001 &1754374848441104085
PrefabInstance:
  m_ObjectHideFlags: 0
  serializedVersion: 2
  m_Modification:
    m_TransformParent: {fileID: 7696481871271465350}
    m_Modifications:
    - target: {fileID: 4831703139073502536, guid: 9b796efcaf4be5a4ab432017c48bc0f4,
        type: 3}
      propertyPath: m_Name
      value: SavingSystem
      objectReference: {fileID: 0}
    - target: {fileID: 8396979509254914985, guid: 9b796efcaf4be5a4ab432017c48bc0f4,
        type: 3}
      propertyPath: m_RootOrder
      value: 1
      objectReference: {fileID: 0}
    - target: {fileID: 8396979509254914985, guid: 9b796efcaf4be5a4ab432017c48bc0f4,
        type: 3}
      propertyPath: m_LocalPosition.x
      value: 0
      objectReference: {fileID: 0}
    - target: {fileID: 8396979509254914985, guid: 9b796efcaf4be5a4ab432017c48bc0f4,
        type: 3}
      propertyPath: m_LocalPosition.y
      value: 0
      objectReference: {fileID: 0}
    - target: {fileID: 8396979509254914985, guid: 9b796efcaf4be5a4ab432017c48bc0f4,
        type: 3}
      propertyPath: m_LocalPosition.z
      value: 0
      objectReference: {fileID: 0}
    - target: {fileID: 8396979509254914985, guid: 9b796efcaf4be5a4ab432017c48bc0f4,
        type: 3}
      propertyPath: m_LocalRotation.w
      value: 1
      objectReference: {fileID: 0}
    - target: {fileID: 8396979509254914985, guid: 9b796efcaf4be5a4ab432017c48bc0f4,
        type: 3}
      propertyPath: m_LocalRotation.x
      value: 0
      objectReference: {fileID: 0}
    - target: {fileID: 8396979509254914985, guid: 9b796efcaf4be5a4ab432017c48bc0f4,
        type: 3}
      propertyPath: m_LocalRotation.y
      value: 0
      objectReference: {fileID: 0}
    - target: {fileID: 8396979509254914985, guid: 9b796efcaf4be5a4ab432017c48bc0f4,
        type: 3}
      propertyPath: m_LocalRotation.z
      value: 0
      objectReference: {fileID: 0}
    - target: {fileID: 8396979509254914985, guid: 9b796efcaf4be5a4ab432017c48bc0f4,
        type: 3}
      propertyPath: m_LocalEulerAnglesHint.x
      value: 0
      objectReference: {fileID: 0}
    - target: {fileID: 8396979509254914985, guid: 9b796efcaf4be5a4ab432017c48bc0f4,
        type: 3}
      propertyPath: m_LocalEulerAnglesHint.y
      value: 0
      objectReference: {fileID: 0}
    - target: {fileID: 8396979509254914985, guid: 9b796efcaf4be5a4ab432017c48bc0f4,
        type: 3}
      propertyPath: m_LocalEulerAnglesHint.z
      value: 0
      objectReference: {fileID: 0}
    m_RemovedComponents: []
  m_SourcePrefab: {fileID: 100100000, guid: 9b796efcaf4be5a4ab432017c48bc0f4, type: 3}
--- !u!4 &7841007739188393340 stripped
Transform:
  m_CorrespondingSourceObject: {fileID: 8396979509254914985, guid: 9b796efcaf4be5a4ab432017c48bc0f4,
    type: 3}
  m_PrefabInstance: {fileID: 1754374848441104085}
  m_PrefabAsset: {fileID: 0}
--- !u!1001 &5913590709662019411
PrefabInstance:
  m_ObjectHideFlags: 0
  serializedVersion: 2
  m_Modification:
    m_TransformParent: {fileID: 7696481871271465350}
    m_Modifications:
    - target: {fileID: 5202944468130448500, guid: 3a86cd817e7e1a14f908f2a172ca1bca,
        type: 3}
      propertyPath: m_Name
      value: Fader
      objectReference: {fileID: 0}
    - target: {fileID: 5202944468130448503, guid: 3a86cd817e7e1a14f908f2a172ca1bca,
        type: 3}
      propertyPath: m_Pivot.x
      value: 0
      objectReference: {fileID: 0}
    - target: {fileID: 5202944468130448503, guid: 3a86cd817e7e1a14f908f2a172ca1bca,
        type: 3}
      propertyPath: m_Pivot.y
      value: 0
      objectReference: {fileID: 0}
    - target: {fileID: 5202944468130448503, guid: 3a86cd817e7e1a14f908f2a172ca1bca,
        type: 3}
      propertyPath: m_RootOrder
      value: 0
      objectReference: {fileID: 0}
    - target: {fileID: 5202944468130448503, guid: 3a86cd817e7e1a14f908f2a172ca1bca,
        type: 3}
      propertyPath: m_AnchorMax.x
      value: 0
      objectReference: {fileID: 0}
    - target: {fileID: 5202944468130448503, guid: 3a86cd817e7e1a14f908f2a172ca1bca,
        type: 3}
      propertyPath: m_AnchorMax.y
      value: 0
      objectReference: {fileID: 0}
    - target: {fileID: 5202944468130448503, guid: 3a86cd817e7e1a14f908f2a172ca1bca,
        type: 3}
      propertyPath: m_AnchorMin.x
      value: 0
      objectReference: {fileID: 0}
    - target: {fileID: 5202944468130448503, guid: 3a86cd817e7e1a14f908f2a172ca1bca,
        type: 3}
      propertyPath: m_AnchorMin.y
      value: 0
      objectReference: {fileID: 0}
    - target: {fileID: 5202944468130448503, guid: 3a86cd817e7e1a14f908f2a172ca1bca,
        type: 3}
      propertyPath: m_SizeDelta.x
      value: 0
      objectReference: {fileID: 0}
    - target: {fileID: 5202944468130448503, guid: 3a86cd817e7e1a14f908f2a172ca1bca,
        type: 3}
      propertyPath: m_SizeDelta.y
      value: 0
      objectReference: {fileID: 0}
    - target: {fileID: 5202944468130448503, guid: 3a86cd817e7e1a14f908f2a172ca1bca,
        type: 3}
      propertyPath: m_LocalPosition.x
      value: 0
      objectReference: {fileID: 0}
    - target: {fileID: 5202944468130448503, guid: 3a86cd817e7e1a14f908f2a172ca1bca,
        type: 3}
      propertyPath: m_LocalPosition.y
      value: 0
      objectReference: {fileID: 0}
    - target: {fileID: 5202944468130448503, guid: 3a86cd817e7e1a14f908f2a172ca1bca,
        type: 3}
      propertyPath: m_LocalPosition.z
      value: 0
      objectReference: {fileID: 0}
    - target: {fileID: 5202944468130448503, guid: 3a86cd817e7e1a14f908f2a172ca1bca,
        type: 3}
      propertyPath: m_LocalRotation.w
      value: 1
      objectReference: {fileID: 0}
    - target: {fileID: 5202944468130448503, guid: 3a86cd817e7e1a14f908f2a172ca1bca,
        type: 3}
      propertyPath: m_LocalRotation.x
      value: 0
      objectReference: {fileID: 0}
    - target: {fileID: 5202944468130448503, guid: 3a86cd817e7e1a14f908f2a172ca1bca,
        type: 3}
      propertyPath: m_LocalRotation.y
      value: 0
      objectReference: {fileID: 0}
    - target: {fileID: 5202944468130448503, guid: 3a86cd817e7e1a14f908f2a172ca1bca,
        type: 3}
      propertyPath: m_LocalRotation.z
      value: 0
      objectReference: {fileID: 0}
    - target: {fileID: 5202944468130448503, guid: 3a86cd817e7e1a14f908f2a172ca1bca,
        type: 3}
      propertyPath: m_AnchoredPosition.x
      value: 0
      objectReference: {fileID: 0}
    - target: {fileID: 5202944468130448503, guid: 3a86cd817e7e1a14f908f2a172ca1bca,
        type: 3}
      propertyPath: m_AnchoredPosition.y
      value: 0
      objectReference: {fileID: 0}
    - target: {fileID: 5202944468130448503, guid: 3a86cd817e7e1a14f908f2a172ca1bca,
        type: 3}
      propertyPath: m_LocalEulerAnglesHint.x
      value: 0
      objectReference: {fileID: 0}
    - target: {fileID: 5202944468130448503, guid: 3a86cd817e7e1a14f908f2a172ca1bca,
        type: 3}
      propertyPath: m_LocalEulerAnglesHint.y
      value: 0
      objectReference: {fileID: 0}
    - target: {fileID: 5202944468130448503, guid: 3a86cd817e7e1a14f908f2a172ca1bca,
        type: 3}
      propertyPath: m_LocalEulerAnglesHint.z
      value: 0
      objectReference: {fileID: 0}
    m_RemovedComponents: []
  m_SourcePrefab: {fileID: 100100000, guid: 3a86cd817e7e1a14f908f2a172ca1bca, type: 3}
--- !u!224 &1884150640335891236 stripped
RectTransform:
  m_CorrespondingSourceObject: {fileID: 5202944468130448503, guid: 3a86cd817e7e1a14f908f2a172ca1bca,
    type: 3}
  m_PrefabInstance: {fileID: 5913590709662019411}
  m_PrefabAsset: {fileID: 0}
